{
    "page": 1,
    "perPage": 30,
    "totalItems": 60,
    "totalPages": 2,
    "items": [
        {
            "assigned_agent": "misty",
            "collectionId": "tw44vd067pqost4",
            "collectionName": "tasks",
            "created": "2026-03-16 08:27:15.910Z",
            "description": "Write release notes for create-flotilla v0.2.0. Cover: heartbeat dot tooltips + mock status, demo intercept modal (bigbear only), GitHub Issues <-> PocketBase sync, dynamic Telegram bot commands from fleet_meta.json, Misty onboarding, package sync (dashboard assets, plists), ARCHITECTURE.md v0.2.0. Format: CHANGELOG.md entry + GitHub release body. Assigned: Clau.",
            "gh_issue_id": 24,
            "goal_id": "",
            "id": "pfqi25uz16u3ih4",
            "status": "approved",
            "title": "#68: Write v0.2.0 release notes",
            "updated": "2026-03-18 19:46:15.024Z"
        },
        {
            "assigned_agent": "misty",
            "collectionId": "tw44vd067pqost4",
            "collectionName": "tasks",
            "created": "2026-03-16 14:56:16.678Z",
            "description": "Write release notes for create-flotilla v0.2.0. Cover: heartbeat dot tooltips + mock status, demo intercept modal (bigbear only), GitHub Issues <-> PocketBase sync, dynamic Telegram bot commands from fleet_meta.json, Misty onboarding, package sync (dashboard assets, plists), ARCHITECTURE.md v0.2.0. Format: CHANGELOG.md entry + GitHub release body. Assigned: Clau.",
            "gh_issue_id": 24,
            "goal_id": "",
            "id": "grkxwqbgr4far01",
            "status": "approved",
            "title": "#68: Write v0.2.0 release notes",
            "updated": "2026-03-18 17:56:31.658Z"
        },
        {
            "assigned_agent": "misty",
            "collectionId": "tw44vd067pqost4",
            "collectionName": "tasks",
            "created": "2026-03-16 15:56:13.734Z",
            "description": "",
            "gh_issue_id": 24,
            "goal_id": "",
            "id": "1hu6dxdf4513ipd",
            "status": "approved",
            "title": "#68: Write v0.2.0 release notes",
            "updated": "2026-03-18 17:56:32.474Z"
        },
        {
            "assigned_agent": "misty",
            "collectionId": "tw44vd067pqost4",
            "collectionName": "tasks",
            "created": "2026-03-16 16:16:11.477Z",
            "description": "Write release notes for create-flotilla v0.2.0. Cover: heartbeat dot tooltips + mock status, demo intercept modal (bigbear only), GitHub Issues <-> PocketBase sync, dynamic Telegram bot commands from fleet_meta.json, Misty onboarding, package sync (dashboard assets, plists), ARCHITECTURE.md v0.2.0. Format: CHANGELOG.md entry + GitHub release body.",
            "gh_issue_id": 24,
            "goal_id": "",
            "id": "pjm84iv7av8o842",
            "status": "approved",
            "title": "#68: Write v0.2.0 release notes",
            "updated": "2026-03-18 17:56:33.266Z"
        },
        {
            "assigned_agent": "misty",
            "collectionId": "tw44vd067pqost4",
            "collectionName": "tasks",
            "created": "2026-03-16 16:26:15.636Z",
            "description": "",
            "gh_issue_id": 24,
            "goal_id": "",
            "id": "5x7umugayv5i917",
            "status": "approved",
            "title": "#68: Write v0.2.0 release notes",
            "updated": "2026-03-18 17:56:34.083Z"
        },
        {
            "assigned_agent": "misty",
            "collectionId": "tw44vd067pqost4",
            "collectionName": "tasks",
            "created": "2026-03-16 16:46:14.697Z",
            "description": "",
            "gh_issue_id": 24,
            "goal_id": "",
            "id": "bntzza0sbw3xyds",
            "status": "approved",
            "title": "#68: Write v0.2.0 release notes",
            "updated": "2026-03-18 17:56:34.900Z"
        },
        {
            "assigned_agent": "misty",
            "collectionId": "tw44vd067pqost4",
            "collectionName": "tasks",
            "created": "2026-03-16 17:16:14.512Z",
            "description": "Write release notes for create-flotilla v0.2.0. Cover: heartbeat dot tooltips + mock status, demo intercept modal (bigbear only), GitHub Issues <-> PocketBase sync, dynamic Telegram bot commands from fleet_meta.json, Misty onboarding, package sync (dashboard assets, plists), ARCHITECTURE.md v0.2.0. Format: CHANGELOG.md entry + GitHub release body.",
            "gh_issue_id": 24,
            "goal_id": "",
            "id": "aykfbbzmn3iknbw",
            "status": "approved",
            "title": "#68: Write v0.2.0 release notes",
            "updated": "2026-03-18 17:56:35.725Z"
        },
        {
            "assigned_agent": "misty",
            "collectionId": "tw44vd067pqost4",
            "collectionName": "tasks",
            "created": "2026-03-16 19:36:30.089Z",
            "description": "Write release notes for create-flotilla v0.2.0. Cover: heartbeat dot tooltips + mock status, demo intercept modal (bigbear only), GitHub Issues <-> PocketBase sync, dynamic Telegram bot commands from fleet_meta.json, Misty onboarding, package sync (dashboard assets, plists), ARCHITECTURE.md v0.2.0. Format: CHANGELOG.md entry + GitHub release body.",
            "gh_issue_id": 24,
            "goal_id": "",
            "id": "b19szwkzwcb7zvb",
            "status": "approved",
            "title": "#68: Write v0.2.0 release notes",
            "updated": "2026-03-18 17:56:36.552Z"
        },
        {
            "assigned_agent": "misty",
            "collectionId": "tw44vd067pqost4",
            "collectionName": "tasks",
            "created": "2026-03-16 19:56:17.108Z",
            "description": "Write release notes for create-flotilla v0.2.0. Cover: heartbeat dot tooltips + mock status, demo intercept modal (bigbear only), GitHub Issues <-> PocketBase sync, dynamic Telegram bot commands from fleet_meta.json, Misty onboarding, package sync (dashboard assets, plists), ARCHITECTURE.md v0.2.0. Format: CHANGELOG.md entry + GitHub release body.",
            "gh_issue_id": 24,
            "goal_id": "",
            "id": "q70d31w126htjy8",
            "status": "approved",
            "title": "#68: Write v0.2.0 release notes",
            "updated": "2026-03-18 17:56:37.406Z"
        },
        {
            "assigned_agent": "misty",
            "collectionId": "tw44vd067pqost4",
            "collectionName": "tasks",
            "created": "2026-03-16 20:26:16.732Z",
            "description": "Write release notes for create-flotilla v0.2.0. Cover: heartbeat dot tooltips + mock status, demo intercept modal (bigbear only), GitHub Issues <-> PocketBase sync, dynamic Telegram bot commands from fleet_meta.json, Misty onboarding, package sync (dashboard assets, plists), ARCHITECTURE.md v0.2.0. Format: CHANGELOG.md entry + GitHub release body.",
            "gh_issue_id": 24,
            "goal_id": "",
            "id": "u136pa759ni5sfu",
            "status": "approved",
            "title": "#68: Write v0.2.0 release notes",
            "updated": "2026-03-18 17:56:38.235Z"
        },
        {
            "assigned_agent": "misty",
            "collectionId": "tw44vd067pqost4",
            "collectionName": "tasks",
            "created": "2026-03-16 20:46:14.475Z",
            "description": "",
            "gh_issue_id": 24,
            "goal_id": "",
            "id": "qznh6zj0s1hn2rr",
            "status": "approved",
            "title": "#68: Write v0.2.0 release notes",
            "updated": "2026-03-18 17:56:39.082Z"
        },
        {
            "assigned_agent": "misty",
            "collectionId": "tw44vd067pqost4",
            "collectionName": "tasks",
            "created": "2026-03-16 21:36:15.135Z",
            "description": "Write release notes for create-flotilla v0.2.0. Cover: heartbeat dot tooltips + mock status, demo intercept modal (bigbear only), GitHub Issues <-> PocketBase sync, dynamic Telegram bot commands from fleet_meta.json, Misty onboarding, package sync (dashboard assets, plists), ARCHITECTURE.md v0.2.0. Format: CHANGELOG.md entry + GitHub release body.",
            "gh_issue_id": 24,
            "goal_id": "",
            "id": "045t02te8wec00j",
            "status": "approved",
            "title": "#68: Write v0.2.0 release notes",
            "updated": "2026-03-18 17:56:39.900Z"
        },
        {
            "assigned_agent": "misty",
            "collectionId": "tw44vd067pqost4",
            "collectionName": "tasks",
            "created": "2026-03-16 21:56:14.224Z",
            "description": "Write release notes for create-flotilla v0.2.0. Cover: heartbeat dot tooltips + mock status, demo intercept modal (bigbear only), GitHub Issues <-> PocketBase sync, dynamic Telegram bot commands from fleet_meta.json, Misty onboarding, package sync (dashboard assets, plists), ARCHITECTURE.md v0.2.0. Format: CHANGELOG.md entry + GitHub release body.",
            "gh_issue_id": 24,
            "goal_id": "",
            "id": "5pjvu5a09bv5wth",
            "status": "approved",
            "title": "#68: Write v0.2.0 release notes",
            "updated": "2026-03-18 17:56:40.997Z"
        },
        {
            "assigned_agent": "misty",
            "collectionId": "tw44vd067pqost4",
            "collectionName": "tasks",
            "created": "2026-03-16 21:56:19.165Z",
            "description": "Release notes written in CHANGELOG.md. Ready for peer review.",
            "gh_issue_id": 24,
            "goal_id": "",
            "id": "rydeikhsbd2gzll",
            "status": "approved",
            "title": "#68: Write v0.2.0 release notes",
            "updated": "2026-03-18 17:56:41.830Z"
        },
        {
            "assigned_agent": "misty",
            "collectionId": "tw44vd067pqost4",
            "collectionName": "tasks",
            "created": "2026-03-16 22:36:15.238Z",
            "description": "Write release notes for create-flotilla v0.2.0. Cover: heartbeat dot tooltips + mock status, demo intercept modal (bigbear only), GitHub Issues <-> PocketBase sync, dynamic Telegram bot commands from fleet_meta.json, Misty onboarding, package sync (dashboard assets, plists), ARCHITECTURE.md v0.2.0. Format: CHANGELOG.md entry + GitHub release body.",
            "gh_issue_id": 24,
            "goal_id": "",
            "id": "s9ks8is3o4j3rd6",
            "status": "approved",
            "title": "#68: Write v0.2.0 release notes",
            "updated": "2026-03-18 17:56:42.678Z"
        },
        {
            "assigned_agent": "misty",
            "collectionId": "tw44vd067pqost4",
            "collectionName": "tasks",
            "created": "2026-03-16 22:56:11.798Z",
            "description": "Write release notes for create-flotilla v0.2.0. Cover: heartbeat dot tooltips + mock status, demo intercept modal (bigbear only), GitHub Issues <-> PocketBase sync, dynamic Telegram bot commands from fleet_meta.json, Misty onboarding, package sync (dashboard assets, plists), ARCHITECTURE.md v0.2.0. Format: CHANGELOG.md entry + GitHub release body.",
            "gh_issue_id": 24,
            "goal_id": "",
            "id": "p3xrhesreke6clz",
            "status": "approved",
            "title": "#68: Write v0.2.0 release notes",
            "updated": "2026-03-18 17:56:43.521Z"
        },
        {
            "assigned_agent": "misty",
            "collectionId": "tw44vd067pqost4",
            "collectionName": "tasks",
            "created": "2026-03-16 23:06:22.793Z",
            "description": "",
            "gh_issue_id": 24,
            "goal_id": "",
            "id": "elvy6aoi0h83il3",
            "status": "approved",
            "title": "#68: Write v0.2.0 release notes",
            "updated": "2026-03-18 17:56:44.360Z"
        },
        {
            "assigned_agent": "misty",
            "collectionId": "tw44vd067pqost4",
            "collectionName": "tasks",
            "created": "2026-03-16 23:16:14.601Z",
            "description": "Write release notes for create-flotilla v0.2.0. Cover: heartbeat dot tooltips + mock status, demo intercept modal (bigbear only), GitHub Issues <-> PocketBase sync, dynamic Telegram bot commands from fleet_meta.json, Misty onboarding, package sync (dashboard assets, plists), ARCHITECTURE.md v0.2.0. Format: CHANGELOG.md entry + GitHub release body.",
            "gh_issue_id": 24,
            "goal_id": "",
            "id": "xdi5mb9yvhf14ao",
            "status": "approved",
            "title": "#68: Write v0.2.0 release notes",
            "updated": "2026-03-18 17:56:45.189Z"
        },
        {
            "assigned_agent": "misty",
            "collectionId": "tw44vd067pqost4",
            "collectionName": "tasks",
            "created": "2026-03-16 23:46:14.601Z",
            "description": "Write release notes for create-flotilla v0.2.0. Cover: heartbeat dot tooltips + mock status, demo intercept modal (bigbear only), GitHub Issues <-> PocketBase sync, dynamic Telegram bot commands from fleet_meta.json, Misty onboarding, package sync (dashboard assets, plists), ARCHITECTURE.md v0.2.0. Format: CHANGELOG.md entry + GitHub release body.",
            "gh_issue_id": 24,
            "goal_id": "",
            "id": "qe32kxzm0xfsq4o",
            "status": "approved",
            "title": "#68: Write v0.2.0 release notes",
            "updated": "2026-03-18 17:56:46.013Z"
        },
        {
            "assigned_agent": "misty",
            "collectionId": "tw44vd067pqost4",
            "collectionName": "tasks",
            "created": "2026-03-16 23:56:13.489Z",
            "description": "",
            "gh_issue_id": 24,
            "goal_id": "",
            "id": "tleo95hxmmqc52a",
            "status": "approved",
            "title": "#68: Write v0.2.0 release notes",
            "updated": "2026-03-18 17:56:46.850Z"
        },
        {
            "assigned_agent": "misty",
            "collectionId": "tw44vd067pqost4",
            "collectionName": "tasks",
            "created": "2026-03-17 00:06:15.050Z",
            "description": "Write release notes for create-flotilla v0.2.0. Cover: heartbeat dot tooltips + mock status, demo intercept modal (bigbear only), GitHub Issues <-> PocketBase sync, dynamic Telegram bot commands from fleet_meta.json, Misty onboarding, package sync (dashboard assets, plists), ARCHITECTURE.md v0.2.0. Format: CHANGELOG.md entry + GitHub release body.",
            "gh_issue_id": 24,
            "goal_id": "",
            "id": "o2tef6kr1vogytp",
            "status": "approved",
            "title": "#68: Write v0.2.0 release notes",
            "updated": "2026-03-18 17:56:47.683Z"
        },
        {
            "assigned_agent": "misty",
            "collectionId": "tw44vd067pqost4",
            "collectionName": "tasks",
            "created": "2026-03-17 00:16:14.904Z",
            "description": "Write release notes for create-flotilla v0.2.0. Cover: heartbeat dot tooltips + mock status, demo intercept modal (bigbear only), GitHub Issues <-> PocketBase sync, dynamic Telegram bot commands from fleet_meta.json, Misty onboarding, package sync (dashboard assets, plists), ARCHITECTURE.md v0.2.0. Format: CHANGELOG.md entry + GitHub release body.",
            "gh_issue_id": 24,
            "goal_id": "",
            "id": "0ngzcoxhg9ekkzq",
            "status": "approved",
            "title": "#68: Write v0.2.0 release notes",
            "updated": "2026-03-18 17:56:48.737Z"
        },
        {
            "assigned_agent": "misty",
            "collectionId": "tw44vd067pqost4",
            "collectionName": "tasks",
            "created": "2026-03-17 00:36:17.165Z",
            "description": "Write release notes for create-flotilla v0.2.0. Cover: heartbeat dot tooltips + mock status, demo intercept modal (bigbear only), GitHub Issues <-> PocketBase sync, dynamic Telegram bot commands from fleet_meta.json, Misty onboarding, package sync (dashboard assets, plists), ARCHITECTURE.md v0.2.0. Format: CHANGELOG.md entry + GitHub release body.",
            "gh_issue_id": 24,
            "goal_id": "",
            "id": "nal2916vl05h0cj",
            "status": "approved",
            "title": "#68: Write v0.2.0 release notes",
            "updated": "2026-03-18 17:56:49.560Z"
        },
        {
            "assigned_agent": "misty",
            "collectionId": "tw44vd067pqost4",
            "collectionName": "tasks",
            "created": "2026-03-17 00:46:13.445Z",
            "description": "Write release notes for create-flotilla v0.2.0. Cover: heartbeat dot tooltips + mock status, demo intercept modal (bigbear only), GitHub Issues <-> PocketBase sync, dynamic Telegram bot commands from fleet_meta.json, Misty onboarding, package sync (dashboard assets, plists), ARCHITECTURE.md v0.2.0. Format: CHANGELOG.md entry + GitHub release body.",
            "gh_issue_id": 24,
            "goal_id": "",
            "id": "jvnpscsx9hjl0qp",
            "status": "approved",
            "title": "#68: Write v0.2.0 release notes",
            "updated": "2026-03-18 17:56:50.398Z"
        },
        {
            "assigned_agent": "misty",
            "collectionId": "tw44vd067pqost4",
            "collectionName": "tasks",
            "created": "2026-03-17 00:56:14.775Z",
            "description": "Write release notes for create-flotilla v0.2.0. Cover: heartbeat dot tooltips + mock status, demo intercept modal (bigbear only), GitHub Issues <-> PocketBase sync, dynamic Telegram bot commands from fleet_meta.json, Misty onboarding, package sync (dashboard assets, plists), ARCHITECTURE.md v0.2.0. Format: CHANGELOG.md entry + GitHub release body.",
            "gh_issue_id": 24,
            "goal_id": "",
            "id": "xabnimyknmifdkt",
            "status": "approved",
            "title": "#68: Write v0.2.0 release notes",
            "updated": "2026-03-18 17:56:51.251Z"
        },
        {
            "assigned_agent": "misty",
            "collectionId": "tw44vd067pqost4",
            "collectionName": "tasks",
            "created": "2026-03-17 01:46:14.393Z",
            "description": "Write release notes for create-flotilla v0.2.0. Cover: heartbeat dot tooltips + mock status, demo intercept modal (bigbear only), GitHub Issues <-> PocketBase sync, dynamic Telegram bot commands from fleet_meta.json, Misty onboarding, package sync (dashboard assets, plists), ARCHITECTURE.md v0.2.0. Format: CHANGELOG.md entry + GitHub release body.",
            "gh_issue_id": 24,
            "goal_id": "",
            "id": "7yu4uyll62ugft3",
            "status": "approved",
            "title": "#68: Write v0.2.0 release notes",
            "updated": "2026-03-18 17:56:52.173Z"
        },
        {
            "assigned_agent": "misty",
            "collectionId": "tw44vd067pqost4",
            "collectionName": "tasks",
            "created": "2026-03-17 02:46:14.929Z",
            "description": "",
            "gh_issue_id": 24,
            "goal_id": "",
            "id": "fj36qcuk07g7x2n",
            "status": "approved",
            "title": "#68: Write v0.2.0 release notes",
            "updated": "2026-03-18 17:57:05.152Z"
        },
        {
            "assigned_agent": "misty",
            "collectionId": "tw44vd067pqost4",
            "collectionName": "tasks",
            "created": "2026-03-17 02:56:12.474Z",
            "description": "Write release notes for create-flotilla v0.2.0. Cover: heartbeat dot tooltips + mock status, demo intercept modal (bigbear only), GitHub Issues <-> PocketBase sync, dynamic Telegram bot commands from fleet_meta.json, Misty onboarding, package sync (dashboard assets, plists), ARCHITECTURE.md v0.2.0. Format: CHANGELOG.md entry + GitHub release body.",
            "gh_issue_id": 24,
            "goal_id": "",
            "id": "7565kt715tyd3z1",
            "status": "approved",
            "title": "#68: Write v0.2.0 release notes",
            "updated": "2026-03-18 17:57:06.099Z"
        },
        {
            "assigned_agent": "misty",
            "collectionId": "tw44vd067pqost4",
            "collectionName": "tasks",
            "created": "2026-03-17 03:06:13.133Z",
            "description": "",
            "gh_issue_id": 24,
            "goal_id": "",
            "id": "uvu8sse1q9kemws",
            "status": "approved",
            "title": "#68: Write v0.2.0 release notes",
            "updated": "2026-03-18 17:57:06.951Z"
        },
        {
            "assigned_agent": "misty",
            "collectionId": "tw44vd067pqost4",
            "collectionName": "tasks",
            "created": "2026-03-17 03:16:15.190Z",
            "description": "Write release notes for create-flotilla v0.2.0. Cover: heartbeat dot tooltips + mock status, demo intercept modal (bigbear only), GitHub Issues <-> PocketBase sync, dynamic Telegram bot commands from fleet_meta.json, Misty onboarding, package sync (dashboard assets, plists), ARCHITECTURE.md v0.2.0. Format: CHANGELOG.md entry + GitHub release body.",
            "gh_issue_id": 24,
            "goal_id": "",
            "id": "vmdvriqkmkrbh4e",
            "status": "approved",
            "title": "#68: Write v0.2.0 release notes",
            "updated": "2026-03-18 17:57:07.817Z"
        }
    ]
}
